…
``` r
# to see in a spreadsheet View(papers)
```

Selecting rows and columns
--------------------------

There are many ways to subset the data, either by row (subsetting the *observations*), or by column (subsetting the *variables*). For example, suppose we want to count how many of papers were published in `Marine Ecology Progress Series`. The column `Source_title` contains the title of the journal: let's extract only the papers in MEPS:

``` r
filter(papers, Source_title == "Marine Ecology Progress Series")
```

    ## # A tibble: 754 x 9
    ##    Authors      Author_Ids     Title      Year Source_title Cited_by DOI  
    ##    <chr>        <chr>          <chr>     <int> <chr>           <int> <chr>
    ##  1 McGinty, N.… 37461825600; … Traits s…  2018 Marine Ecol…       NA 10.3…
    ##  2 Schulz, I.,… 55452762600; … Remarkab…  2018 Marine Ecol…       NA 10.3…
    ##  3 Huebert, K.… 25230018900; … Modeled …  2018 Marine Ecol…       NA 10.3…
    ##  4 Dong, Y., L… 56668131700; … Size-dep…  2018 Marine Ecol…       NA 10.3…
    ##  5 Paul, A.J.,… 56939822500; … Baltic S…  2018 Marine Ecol…       NA 10.3…
    ##  6 Van Der Sle… 53664696600; … Non-stat…  2018 Marine Ecol…       NA 10.3…
    ##  7 Larsson, M.… 57203252521; … Hitchhik…  2018 Marine Ecol…       NA 10.3…
    ##  8 Brereton, A… 57194189816; … Large-ed…  2018 Marine Ecol…       NA 10.3…
    ##  9 Kacenas, S.… 56809437100; … Density-…  2018 Marine Ecol…       NA 10.3…
    ## 10 Umezawa, Y.… 7103308499; 7… Phytopla…  2018 Marine Ecol…        1 10.3…
    ## # ... with 744 more rows, and 2 more variables: Document_Type <chr>,
    ## #   EID <chr>
You can see that "only" 754 papers mentioning plankton were published in this journal. We have used the command `filter(tbl, conditions)` to select certain observations. We can combine several conditions, by listing them side by side, possibly using logical operators.

> **Exercise:** what does this do?
>
> ``` r
> filter(papers, Cited_by > 100, Source_title == "Science", Year > 2014)
> ```

We can also select particular variables using the function `select(tbl, cols to select)`. For example, select `Source_title` and `Year`:

``` r
select(papers, Source_title, Year)
```

    ## # A tibble: 19,938 x 2
    ##    Source_title                      Year
    ##    <chr>                            <int>
    ##  1 Science of the Total Environment  2019
    ##  2 Journal of Marine Systems         2019
    ##  3 Frontiers in Earth Sciences       2019
    ##  4 Nature Communications             2018
    ##  5 Nature Communications             2018
    ##  6 Scientific Reports                2018
    ##  7 Ecological Indicators             2018
    ##  8 Environmental Pollution           2018
    ##  9 Scientific Reports                2018
    ## 10 Scientific Reports                2018
    ## # ... with 19,928 more rows
…
does exactly the same as the command above, but is much more readable. By concatenating many commands, you can create incredibly complex pipelines while retaining readability.

Renaming columns
----------------

To rename one or more columns, use `rename()`:

``` r
papers %>% rename(au = Authors)
```

    ## # A tibble: 19,938 x 9
    ##    au     Author_Ids Title  Year Source_title Cited_by DOI   Document_Type
    ##    <chr>  <chr>      <chr> <int> <chr>           <int> <chr> <chr>        
    ##  1 Wu, P… 571893615… The …  2019 Science of …       NA 10.1… Review       
    ##  2 Herná… 670146567… Carb…  2019 Journal of …       NA 10.1… Article      
    ##  3 Sarmi… 150301568… Cret…  2019 Frontiers i…       NA 10.1… Book Chapter 
    ##  4 Evans… 571533034… No s…  2018 Nature Comm…       NA 10.1… Letter       
    ##  5 Marti… 140163200… High…  2018 Nature Comm…        3 10.1… Article      
    ##  6 Berna… 572026700… Mass…  2018 Scientific …       NA 10.1… Article      
    ##  7 Béjao… 247340666… Mach…  2018 Ecological …       NA 10.1… Article      
    ##  8 Pazos… 571945595… Micr…  2018 Environment…       NA 10.1… Article      
    ##  9 Ayala… 570234340… Gela…  2018 Scientific …        1 10.1… Article      
    ## 10 Jyoth… 780160990… Mud …  2018 Scientific …        2 10.1… Article      
    ## # ... with 19,928 more rows, and 1 more variable: EID <chr>
…
If you want to add one or more new columns, or you want to modify an existing column, use the function `mutate`. For example, the data reports `NA` for all papers that have zero citations. Let's change that to zero:

``` r
papers <- papers %>% mutate(Cited_by = ifelse(is.na(Cited_by), 0, Cited_by))
```

Similarly, if we wanted to compute the number of citations by year, we could use:

``` r
papers %>% 
  mutate(Cit_yr = Cited_by / (2019 - Year)) %>% 
  select(Cited_by, Year, Cit_yr)
```

    ## # A tibble: 19,938 x 3
    ##    Cited_by  Year Cit_yr
    ##       <dbl> <int>  <dbl>
    ##  1        0  2019    NaN
    ##  2        0  2019    NaN
    ##  3        0  2019    NaN
    ##  4        0  2018      0
    ##  5        3  2018      3
    ##  6        0  2018      0
    ##  7        0  2018      0
    ##  8        0  2018      0
    ##  9        1  2018      1
    ## 10        2  2018      2
    ## # ... with 19,928 more rows

Use the function `transmute()` to create a new column and drop the original columns.

Ordering the data
-----------------

To order the data according to one or more variables, use `arrange()`:

``` r
papers %>% select(Source_title, Year, Cited_by) %>% arrange(Cited_by)
```

    ## # A tibble: 19,938 x 3
    ##    Source_title                            Year Cited_by
    ##    <chr>                                  <int>    <dbl>
    ##  1 Science of the Total Environment        2019        0
    ##  2 Journal of Marine Systems               2019        0
    ##  3 Frontiers in Earth Sciences             2019        0
    ##  4 Nature Communications                   2018        0
    ##  5 Scientific Reports                      2018        0
    ##  6 Ecological Indicators                   2018        0
    ##  7 Environmental Pollution                 2018        0
    ##  8 Journal of Environmental Radioactivity  2018        0
    ##  9 Scientific Reports                      2018        0
    ## 10 Nature Communications                   2018        0
    ## # ... with 19,928 more rows

``` r
papers %>% select(Source_title, Year, Cited_by) %>% arrange(desc(Cited_by), desc(Year))
```

    ## # A tibble: 19,938 x 3
    ##    Source_title                                              Year Cited_by
    ##    <chr>                                                    <int>    <dbl>
    ##  1 Science                                                   2001     5199
    ##  2 Nature                                                    2005     2223
    ##  3 Proceedings of the National Academy of Sciences of the …  1992     1913
    ##  4 Annual Review of Marine Science                           2009     1659
    ##  5 Microbiology and Molecular Biology Reviews                2000     1554
    ##  6 Nature                                                    2001     1357
    ##  7 Limnology and Oceanography                                2000     1279
    ##  8 Nature                                                    1999     1253
    ##  9 Science                                                   1998     1245
    ## 10 Science                                                   2004     1237
    ## # ... with 19,928 more rows
…
Summaries by group
------------------

One of the most useful features of `dplyr` is the ability to produce statistics for the data once subsetted by *groups*. For example, we would like to measure the average number of citations for papers in a given journal/year combination. We can then group the data by `Source_title` and `Year`, and calculate the mean `Cited_by` once the data is split into groups:

``` r
papers %>% group_by(Source_title, Year) %>% 
  summarise(mean_cits = mean(Cited_by)) %>% 
  select(Source_title, Year, mean_cits) %>% 
  arrange(desc(Source_title), Year, mean_cits)
```

    ## # A tibble: 7,916 x 3
    ## # Groups:   Source_title [2,082]
    ##    Source_title        Year mean_cits
    ##    <chr>              <int>     <dbl>
    ##  1 Zootecnia Tropical  2013      0   
    ##  2 Zootaxa             2005      9   
    ##  3 Zootaxa             2007      4.8 
    ##  4 Zootaxa             2008     10.3 
    ##  5 Zootaxa             2009     10   
    ##  6 Zootaxa             2010      1   
    ##  7 Zootaxa             2011      7   
    ##  8 Zootaxa             2012      6.2 
    ##  9 Zootaxa             2013      3.67
    ## 10 Zootaxa             2015      3.5 
    ## # ... with 7,906 more rows
…
